<?xml version="1.0" encoding="UTF-8"?>
<testsuite xmlns:xsi="http://www.w3.org/2001/XMLSchema-instance" xsi:schemaLocation="https://maven.apache.org/surefire/maven-surefire-plugin/xsd/surefire-test-report.xsd" name="TestSuite" time="138.218" tests="1" errors="0" skipped="0" failures="0">
  <properties>
    <property name="java.vendor" value="Oracle Corporation"/>
    <property name="sun.java.launcher" value="SUN_STANDARD"/>
    <property name="sun.management.compiler" value="HotSpot 64-Bit Tiered Compilers"/>
    <property name="os.name" value="Windows 7"/>
    <property name="sun.boot.class.path" value="C:\Program Files\Java\jdk1.8.0_121\jre\lib\resources.jar;C:\Program Files\Java\jdk1.8.0_121\jre\lib\rt.jar;C:\Program Files\Java\jdk1.8.0_121\jre\lib\sunrsasign.jar;C:\Program Files\Java\jdk1.8.0_121\jre\lib\jsse.jar;C:\Program Files\Java\jdk1.8.0_121\jre\lib\jce.jar;C:\Program Files\Java\jdk1.8.0_121\jre\lib\charsets.jar;C:\Program Files\Java\jdk1.8.0_121\jre\lib\jfr.jar;C:\Program Files\Java\jdk1.8.0_121\jre\classes"/>
    <property name="sun.desktop" value="windows"/>
    <property name="java.vm.specification.vendor" value="Oracle Corporation"/>
    <property name="java.runtime.version" value="1.8.0_121-b13"/>
    <property name="user.name" value="Sa"/>
    <property name="guice.disable.misplaced.annotation.check" value="true"/>
    <property name="user.language" value="en"/>
    <property name="sun.boot.library.path" value="C:\Program Files\Java\jdk1.8.0_121\jre\bin"/>
    <property name="classworlds.conf" value="D:\Appium\apache-maven-3.5.3-bin\apache-maven-3.5.3\bin\..\bin\m2.conf"/>
    <property name="app_file_path" value="D:\Workspace\Neutron\Tests\ShopX\apps\ShopX_6.0.22.apk"/>
    <property name="java.version" value="1.8.0_121"/>
    <property name="user.timezone" value="Asia/Calcutta"/>
    <property name="sun.arch.data.model" value="64"/>
    <property name="java.endorsed.dirs" value="C:\Program Files\Java\jdk1.8.0_121\jre\lib\endorsed"/>
    <property name="sun.cpu.isalist" value="amd64"/>
    <property name="sun.jnu.encoding" value="Cp1252"/>
    <property name="file.encoding.pkg" value="sun.io"/>
    <property name="file.separator" value="\"/>
    <property name="java.specification.name" value="Java Platform API Specification"/>
    <property name="maven.conf" value="D:\Appium\apache-maven-3.5.3-bin\apache-maven-3.5.3\bin\../conf"/>
    <property name="java.class.version" value="52.0"/>
    <property name="user.country" value="IN"/>
    <property name="java.home" value="C:\Program Files\Java\jdk1.8.0_121\jre"/>
    <property name="java.vm.info" value="mixed mode"/>
    <property name="os.version" value="6.1"/>
    <property name="platform" value="ANDROID"/>
    <property name="path.separator" value=";"/>
    <property name="java.vm.version" value="25.121-b13"/>
    <property name="user.variant" value=""/>
    <property name="java.awt.printerjob" value="sun.awt.windows.WPrinterJob"/>
    <property name="sun.io.unicode.encoding" value="UnicodeLittle"/>
    <property name="awt.toolkit" value="sun.awt.windows.WToolkit"/>
    <property name="sun.stdout.encoding" value="cp437"/>
    <property name="user.script" value=""/>
    <property name="user.home" value="C:\Users\Sa"/>
    <property name="java.specification.vendor" value="Oracle Corporation"/>
    <property name="test" value="tests.*"/>
    <property name="mobile_udid" value="4DVKHAINR8SGZ55L"/>
    <property name="library.jansi.path" value="D:\Appium\apache-maven-3.5.3-bin\apache-maven-3.5.3\bin\..\lib\jansi-native"/>
    <property name="java.library.path" value="C:\Program Files\Java\jdk1.8.0_121\bin;C:\Windows\Sun\Java\bin;C:\Windows\system32;C:\Windows;C:\Program Files (x86)\Common Files\Oracle\Java\javapath;C:\ProgramData\Oracle\Java\javapath;C:\Windows\system32;C:\Windows;C:\Windows\System32\Wbem;C:\Windows\System32\WindowsPowerShell\v1.0\;C:\Program Files\Java\jdk1.8.0_121;C:\Program Files\Java\jdk1.8.0_121\bin;C:\cygwin64\bin;D:\Softwares;C:\Program Files\Java\jre1.8.0_121\bin;D:\wamp\bin\php\php5.5.12;C:\Program Files (x86)\Android\android-sdk\platform-tools;C:\Program Files\Git\cmd;C:\Users\Sa\AppData\Local\Android\sdk;D:\Appium\apache-maven-3.5.3-bin\apache-maven-3.5.3\bin;C:\Users\Sa\AppData\Local\Android\sdk\platform-tools;C:\\Users\\Sa\\geckodriver.exe;D:\apache-maven-3.5.4\apache-maven-3.5.4\bin;C:\Program Files\nodejs\;C:\Users\Sa\AppData\Local\GitHubDesktop\bin;C:\Users\Sa\AppData\Roaming\npm;."/>
    <property name="java.vendor.url" value="http://java.oracle.com/"/>
    <property name="java.vm.vendor" value="Oracle Corporation"/>
    <property name="platform_version" value="11.2.6"/>
    <property name="maven.home" value="D:\Appium\apache-maven-3.5.3-bin\apache-maven-3.5.3\bin\.."/>
    <property name="java.runtime.name" value="Java(TM) SE Runtime Environment"/>
    <property name="sun.java.command" value="org.codehaus.plexus.classworlds.launcher.Launcher -Ddevice_name=ANDROID -Dplatform_version=11.2.6 -Dmobile_udid=4DVKHAINR8SGZ55L -Dapp_file_path=D:\Workspace\Neutron\Tests\ShopX\apps\ShopX_6.0.22.apk -Dappium_url=http://127.0.0.1:4723/wd/hub -Dscreenshot_path=D:\Workspace\Neutron\Tests\ShopX\screenshots -Dplatform=ANDROID -Dbrowser=chrome -Dapp_browser_url=http://v2.appachhi.com/chhiscore/ -Dtest=tests.* clean test"/>
    <property name="java.class.path" value="D:\Appium\apache-maven-3.5.3-bin\apache-maven-3.5.3\bin\..\boot\plexus-classworlds-2.5.2.jar"/>
    <property name="java.vm.specification.name" value="Java Virtual Machine Specification"/>
    <property name="java.vm.specification.version" value="1.8"/>
    <property name="sun.cpu.endian" value="little"/>
    <property name="sun.os.patch.level" value="Service Pack 1"/>
    <property name="java.io.tmpdir" value="C:\Users\Sa\AppData\Local\Temp\"/>
    <property name="java.vendor.url.bug" value="http://bugreport.sun.com/bugreport/"/>
    <property name="maven.multiModuleProjectDirectory" value="D:\Workspace\Neutron\Tests\ShopX"/>
    <property name="os.arch" value="amd64"/>
    <property name="java.awt.graphicsenv" value="sun.awt.Win32GraphicsEnvironment"/>
    <property name="appium_url" value="http://127.0.0.1:4723/wd/hub"/>
    <property name="java.ext.dirs" value="C:\Program Files\Java\jdk1.8.0_121\jre\lib\ext;C:\Windows\Sun\Java\lib\ext"/>
    <property name="user.dir" value="D:\Workspace\Neutron\Tests\ShopX"/>
    <property name="app_browser_url" value="http://v2.appachhi.com/chhiscore/"/>
    <property name="browser" value="chrome"/>
    <property name="line.separator" value="&#10;"/>
    <property name="java.vm.name" value="Java HotSpot(TM) 64-Bit Server VM"/>
    <property name="screenshot_path" value="D:\Workspace\Neutron\Tests\ShopX\screenshots"/>
    <property name="sun.stderr.encoding" value="cp437"/>
    <property name="file.encoding" value="Cp1252"/>
    <property name="java.specification.version" value="1.8"/>
    <property name="device_name" value="ANDROID"/>
  </properties>
  <testcase name="Login" classname="tests.LoginFlow" time="55.238"/>
</testsuite>