D:\Workspace\Neutron\Tests\ShopX\src\test\java\tests\LoginFlow.java
D:\Workspace\Neutron\Tests\ShopX\src\test\java\tests\pages\FullPage.java
D:\Workspace\Neutron\Tests\ShopX\src\test\java\tests\pages\LoginPage.java
D:\Workspace\Neutron\Tests\ShopX\src\test\java\tests\SupportTest.java
